OMCODICE;OMDESCRI;OMCONRIM;OMCONRIC
"1961";"1961";"ACCESS";"RIM FIN MAG"
"1966";"1966";"ACCESS";"RIM FIN MAG"
"1973";"1973";"ACCESS";"RIM FIN MAG"
"1974";"1974";"ACCESS";"RIM FIN MAG"
"1977";"1977";"ACCESS";"RIM FIN MAG"
"1978";"1978";"ACCESS";"RIM FIN MAG"
"1980";"1980";"ACCESS";"RIM FIN MAG"
"1982";"1982";"ACCESS";"RIM FIN MAG"
"1987";"1987";"ACCESS";"RIM FIN MAG"
"1988";"1988";"ACCESS";"RIM FIN MAG"
"1989";"1989";"ACCESS";"RIM FIN MAG"
"1992";"1992";"ACCESS";"RIM FIN MAG"
"1994";"1994";"ACCESS";"RIM FIN MAG"
"1997";"1997";"ACCESS";"RIM FIN MAG"
"1998";"1998";"ACCESS";"RIM FIN MAG"
"1999";"1999";"ACCESS";"RIM FIN MAG"
"2000";"2000";"ACCESS";"RIM FIN MAG"
"2001";"2001";"ACCESS";"RIM FIN MAG"
"2003";"2003";"ACCESS";"RIM FIN MAG"
"2004";"2004";"ACCESS";"RIM FIN MAG"
"2005";"2005";"ACCESS";"RIM FIN MAG"
"2006";"2006";"ACCESS";"RIM FIN MAG"
"2007";"2007";"ACCESS";"RIM FIN MAG"
"2008";"2008";"ACCESS";"RIM FIN MAG"
"2009";"2009";"ACCESS";"RIM FIN MAG"
"2010";"2010";"ACCESS";"RIM FIN MAG"
"2011";"2011";"ACCESS";"RIM FIN MAG"
"2012";"2012";"ACCESS";"RIM FIN MAG"
"2013";"2013";"ACCESS";"RIM FIN MAG"
"2014";"2014";"ACCESS";"RIM FIN MAG"
"2015";"2015";"ACCESS";"RIM FIN MAG"
"2016";"2016";"ACCESS";"RIM FIN MAG"
"2017";"2017";"ACCESS";"RIM FIN MAG"
"2018";"2018";"ACCESS";"RIM FIN MAG"
"2019";"2019";"ACCESS";"RIM FIN MAG"
"NM";"NM";"ACCESS";"RIM FIN MAG"
